﻿{
  "dependencies": {
    "Microsoft.NETCore.UniversalWindowsPlatform": "5.2.2",
    "PCLCrypto": "2.0.147",
    "Xamarin.Forms": "2.3.4.224",
    "ZXing.Net.Mobile": "2.2.9",
    "ZXing.Net.Mobile.Forms": "2.2.9"
  },
  "frameworks": {
    "uap10.0": {}
  },
  "runtimes": {
    "win10-arm": {},
    "win10-arm-aot": {},
    "win10-x86": {},
    "win10-x86-aot": {},
    "win10-x64": {},
    "win10-x64-aot": {}
  }
}